Using MRIP Data for Recreational Indicators • NEesp2
…
Pull data

Get recreational catch data for Black Sea Bass using the
get_mrip_catch function. The type argument can
be set to “all” for all catch types (A, B1, B2) or “landings” for just
the landings (A and B1).

bsb_catch <- get_mrip_catch(species = "BLACK SEA BASS", 
                            type = "all", 
                            region = "north and mid-atlantic")
head(bsb_catch)

## $data
## # A tibble: 44 × 14
##    `Estimate Status`  Year `Fishing Year`     `Common Name` `Cumulative Through`
##    <chr>             <int> <chr>              <chr>         <chr>               
##  1 FINAL              1981 CALENDAR YEAR (JA… BLACK SEA BA… ANNUAL              
##  2 FINAL              1982 CALENDAR YEAR (JA… BLACK SEA BA… ANNUAL              
##  3 FINAL              1983 CALENDAR YEAR (JA… BLACK SEA BA… ANNUAL              
##  4 FINAL              1984 CALENDAR YEAR (JA… BLACK SEA BA… ANNUAL              
##  5 FINAL              1985 CALENDAR YEAR (JA… BLACK SEA BA… ANNUAL              
##  6 FINAL              1986 CALENDAR YEAR (JA… BLACK SEA BA… ANNUAL              
##  7 FINAL              1987 CALENDAR YEAR (JA… BLACK SEA BA… ANNUAL              
##  8 FINAL              1988 CALENDAR YEAR (JA… BLACK SEA BA… ANNUAL              
##  9 FINAL              1989 CALENDAR YEAR (JA… BLACK SEA BA… ANNUAL              
## 10 FINAL              1990 CALENDAR YEAR (JA… BLACK SEA BA… ANNUAL              
## # ℹ 34 more rows
## # ℹ 9 more variables: `PSE Total Catch (A+B1+B2)` <dbl>,
## #   `Does Total Catch (A+B1+B2) Meet MRIP Standard` <chr>,
## #   `Is Total Catch (A+B1+B2) Significantly Different From 0` <chr>,
## #   `Total Catch (A+B1+B2)` <chr>,
## #   `Total Catch (A+B1+B2) Lower 95% Confidence Limit` <chr>,
## #   `Total Catch (A+B1+B2) Upper 95% Confidence Limit` <chr>, …
## 
## $metadata
…
bsb_landings <- get_mrip_catch(species = "BLACK SEA BASS",
                               type = "landings", 
                               region = "north and mid-atlantic")
head(bsb_landings)

## $data
## # A tibble: 44 × 14
##    `Estimate Status`  Year `Fishing Year`     `Common Name` `Cumulative Through`
##    <chr>             <int> <chr>              <chr>         <chr>               
##  1 FINAL              1981 CALENDAR YEAR (JA… BLACK SEA BA… ANNUAL              
##  2 FINAL              1982 CALENDAR YEAR (JA… BLACK SEA BA… ANNUAL              
##  3 FINAL              1983 CALENDAR YEAR (JA… BLACK SEA BA… ANNUAL              
##  4 FINAL              1984 CALENDAR YEAR (JA… BLACK SEA BA… ANNUAL              
##  5 FINAL              1985 CALENDAR YEAR (JA… BLACK SEA BA… ANNUAL              
##  6 FINAL              1986 CALENDAR YEAR (JA… BLACK SEA BA… ANNUAL              
##  7 FINAL              1987 CALENDAR YEAR (JA… BLACK SEA BA… ANNUAL              
##  8 FINAL              1988 CALENDAR YEAR (JA… BLACK SEA BA… ANNUAL              
##  9 FINAL              1989 CALENDAR YEAR (JA… BLACK SEA BA… ANNUAL              
## 10 FINAL              1990 CALENDAR YEAR (JA… BLACK SEA BA… ANNUAL              
## # ℹ 34 more rows
## # ℹ 9 more variables: `PSE Total Harvest (A+B1)` <dbl>,
## #   `Does Total Harvest (A+B1) Meet MRIP Standard` <chr>,
## #   `Is Total Harvest (A+B1) Significantly Different From 0` <chr>,
## #   `Total Harvest (A+B1)` <chr>,
## #   `Total Harvest (A+B1) Lower 95% Confidence Limit` <chr>,
## #   `Total Harvest (A+B1) Upper 95% Confidence Limit` <chr>, …
## 
## $metadata
…
